GWAS
…
Which we can further rearrange to:

\[
F = \frac{O_{hom} - E_{hom}}{O_{total} - E_{hom}}
\]

We can confirm this is how PLINK calculates the inbreeding value:

het |> 
  mutate(f2 = (o_hom - e_hom) / (obs_ct - e_hom))

# A tibble: 1,037 × 6
   iid      o_hom  e_hom obs_ct     f    f2
   <chr>    <dbl>  <dbl>  <dbl> <dbl> <dbl>
 1 HG00097 511803 494932 602310 0.157 0.157
 2 HG00107 509813 494932 602310 0.139 0.139
 3 HG00108 510716 494932 602310 0.147 0.147
 4 HG00109 504334 490975 597513 0.125 0.125
 5 HG00110 513805 494932 602310 0.176 0.176
 6 HG00111 511396 494932 602310 0.153 0.153
 7 HG00112 504590 488807 594863 0.149 0.149
 8 HG00114 510423 494932 602310 0.144 0.144
 9 HG00118 508905 494932 602310 0.130 0.130
10 HG00119 511823 494932 602310 0.157 0.157
# ℹ 1,027 more rows
…
