GWAS
…
The plot shows a genome-wide significant association in chromosome 5. There are other regions that seem to contain peaks of association (e.g. on chromosomes 10 and 12), but these do not pass the genome-wide threshold.

10.3 Regional plots

Now that we have found an association with our trait, we may want to investigate it further. One common visalisation is to make a “regional plot”, where we zoom-in on a SNV of interest and make a Manhattan plot, colouring the points by the linkage coefficient to the target SNP.

First, let’s identify our top-most associated SNV:

blood_covar |>
  arrange(p) |>
  select(chrom, pos, id, beta, p)

# A tibble: 894,951 × 5
   chrom       pos id           beta           p
   <chr>     <dbl> <chr>       <dbl>       <dbl>
 1 2     205946921 rs12478185  -1.52 0.000000563
 2 2     205953670 rs2080568   -1.34 0.00000271 
 3 2     205951616 rs74833355  -1.34 0.00000295 
 4 11    130401752 rs747249     1.20 0.00000330 
 5 4      82532964 rs146781081 -3.70 0.00000333 
 6 2     205953651 rs2080567   -1.31 0.00000350 
 7 11    130410772 rs4936098    1.17 0.00000494 
 8 2      67699363 rs62155373   1.04 0.00000678 
 9 19     50295975 rs6509462    1.27 0.00000682 
10 2     205955435 rs76136841  -1.28 0.00000730 
# ℹ 894,941 more rows
…
