GWAS
…
plink2 --pfile data/plink/1000G_subset --out results/1000G_subset --missing

This generates two files with extension .smiss (for sample-missingness report) and .vmiss (for variant-missingness report). We import both of these into our R session:

smiss <- read_tsv("results/1000G_subset.smiss") |> 
  clean_names()
  
vmiss <- read_tsv("results/1000G_subset.vmiss") |> 
  clean_names()

We now explore how many samples have missing genotypes:

smiss |> filter(missing_ct > 0)

# A tibble: 904 × 5
   number_fid iid     missing_ct  obs_ct f_miss
   <chr>      <chr>        <dbl>   <dbl>  <dbl>
 1 HG00096    HG00096     167306 5578576 0.0300
 2 HG00097    HG00097     167061 5578576 0.0299
 3 HG00099    HG00099     167502 5578576 0.0300
 4 HG00100    HG00100     166912 5578576 0.0299
 5 HG00101    HG00101     167329 5578576 0.0300
 6 HG00102    HG00102     168122 5578576 0.0301
 7 HG00103    HG00103     167619 5578576 0.0300
 8 HG00105    HG00105     167770 5578576 0.0301
 9 HG00106    HG00106     167306 5578576 0.0300
10 HG00107    HG00107     166701 5578576 0.0299
# ℹ 894 more rows

vmiss |> filter(missing_ct > 0)

# A tibble: 1,113,300 × 5
   number_chrom id    missing_ct obs_ct  f_miss
          <dbl> <chr>      <dbl>  <dbl>   <dbl>
 1            1 .             22    904 0.0243 
 2            1 .             83    904 0.0918 
 3            1 .            172    904 0.190  
 4            1 .             14    904 0.0155 
 5            1 .            202    904 0.223  
 6            1 .              7    904 0.00774
 7            1 .             55    904 0.0608 
 8            1 .            209    904 0.231  
 9            1 .             17    904 0.0188 
10            1 .            252    904 0.279  
# ℹ 1,113,290 more rows
…
